<?xml version="1.0" encoding="UTF-8"?>
<svg id="Layer_1" data-name="Layer 1" xmlns="http://www.w3.org/2000/svg" viewBox="0 0 260.89 59.07">
  <defs>
    <style>
      .cls-1 {
        stroke-width: 0px;
      }
    </style>
  </defs>
  <g>
    <path class="cls-1" d="m1.11,41.79c-.17,0-.34-.04-.49-.13-.3-.17-.49-.48-.51-.83-.12-2.77-.13-5.32-.04-7.78.04-1.12,1.36-1.91,1.51-2,5.72-3.31,11.46-6.6,17.19-9.89l6.94-3.98c2.27-1.3,4.53-2.61,6.87-3.97l1.74-1.01-1.18-.69c-2.99-1.73-5.82-3.37-8.7-4.95-.2.02-.57.14-.88.32-5.17,3.08-10.31,6.18-15.46,9.28l-4.68,2.82c-.35.21-.7.41-1.13.65l-.76.44c-.15.09-.33.13-.5.13s-.35-.04-.5-.13c-.31-.18-.5-.51-.5-.87,0-.43,0-.84-.01-1.23-.02-.99-.03-1.93.06-2.87.09-.93,1.02-1.59,1.42-1.83C9.24,8.6,16.26,4.38,22.97.39c.4-.24.96-.39,1.45-.39.36,0,.67.08.94.23,5.53,3.17,11.12,6.42,16.53,9.57l2.46,1.43c.29.17.41.42.47.54l.05.11c.25.48.08,1.07-.38,1.34l-2.93,1.7c-2.09,1.21-4.18,2.42-6.27,3.62l-6.52,3.74c-7.31,4.2-14.62,8.39-21.91,12.62-.12.58-.15,2.15-.09,3.37.02.4-.2.77-.56.94-.01,0-1.07.53-4.62,2.45-.15.08-.31.12-.48.12Z"/>
    <path class="cls-1" d="m20.83,59.07c-.33,0-.81-.05-1.23-.29-6.14-3.47-18.21-11.63-18.61-11.98-.24-.21-.37-.53-.34-.85.03-.32.22-.61.5-.77,7.17-4.12,14.25-8.13,21.1-12.01,6.9-3.91,14.04-7.96,21.35-12.16.15-.09.33-.13.5-.13s.35.04.5.13c.31.18.5.51.5.87,0,.45,0,.88.02,1.28.02.97.04,1.89-.08,2.8-.14,1.06-1.28,1.79-1.62,1.99-6.65,3.85-13.31,7.67-19.98,11.49l-6.02,3.46c-1.77,1.02-3.55,2.04-5.39,3.11l-1.38.79.48.28c.81.47,1.62.92,2.44,1.38,1.91,1.07,3.89,2.17,5.75,3.42.57.38,1.05.56,1.49.56s.99-.19,1.71-.62c4.72-2.81,9.57-5.58,14.26-8.25,1.63-.93,3.27-1.87,4.9-2.8.36-.2.72-.39,1.17-.63l.76-.4c.15-.08.31-.12.47-.12.18,0,.36.05.52.14.3.18.48.51.48.86,0,.42,0,.82,0,1.2.01.99.02,1.93-.05,2.87-.08.97-1.13,1.62-1.34,1.75-6.29,3.63-13.75,7.93-21.46,12.3-.51.29-1.09.33-1.4.33Z"/>
  </g>
  <g>
    <path class="cls-1" d="m73.56,43.53v6.47h-10.02V9.41h10.02c9.96.17,17.96,7.85,17.96,17.09s-8,16.87-17.96,17.03Zm0-9.35c4.45-.17,7.94-3.54,7.94-7.69s-3.5-7.52-7.94-7.69v15.37Z"/>
    <path class="cls-1" d="m103.86,50h-10.02V9.35h10.02v40.64Z"/>
    <path class="cls-1" d="m130.95,28.87l13.93,21.12h-11.8l-7.94-12.05-7.82,12.05h-11.68l13.58-21.07-13.04-19.85h11.74l7.17,10.84,6.94-10.84h11.74l-12.8,19.8Z"/>
    <path class="cls-1" d="m150.57,44.02c-4.09-3.93-6.34-8.9-6.34-14.38s2.25-10.56,6.34-14.38c8.54-7.96,22.29-7.96,30.83,0l-7.05,6.58c-4.62-4.31-12.09-4.26-16.66,0-2.19,2.16-3.44,4.87-3.44,7.8s1.25,5.59,3.44,7.74c4.56,4.26,12.03,4.31,16.66,0l7.05,6.64c-4.27,3.98-9.72,5.92-15.41,5.92s-11.14-1.93-15.41-5.92Z"/>
    <path class="cls-1" d="m223.48,29.65c0,11.23-9.78,20.29-21.82,20.29s-21.76-9.07-21.76-20.29,9.72-20.29,21.76-20.29,21.82,9.07,21.82,20.29Zm-10.08,0c0-6.03-5.28-10.95-11.74-10.95s-11.74,4.92-11.74,10.95,5.28,10.95,11.74,10.95,11.74-4.92,11.74-10.95Z"/>
    <path class="cls-1" d="m260.89,9.41v40.59h-10.85l-14.23-23.67v23.67h-10.02V9.52h10.91l14.17,23.61V9.41h10.02Z"/>
  </g>
</svg>